Submodule 1.4
…
The next few examples use meteorological data from Hungry Horse (HH)
and Polson Kerr (PK) dams. You can download this data set by clicking here. Make sure you download this data set
into your project directory!!

Let’s load this data into R!

#  Import and "tidy" your data  -----------------------------

# import meteorological data from Hungry Horse (HH) and Polson Kerr (PK) dams as tibble dataframe using readr 
clim_data <- read_csv("MTMetStations.csv")

# quick look at the contents
clim_data

## # A tibble: 1,734 × 7
##    Date      PK.TMaxF PK.TMinF PK.PrcpIN HH.TMaxF HH.TMinF HH.PrcpIN
##    <chr>        <dbl>    <dbl>     <dbl>    <dbl>    <dbl>     <dbl>
##  1 1/1/2013        27       19      0          26       22      0   
##  2 1/2/2013        27       22      0          27       23      0   
##  3 1/3/2013        23       14      0          25       21      0   
##  4 1/4/2013        25       19      0          22       13      0   
##  5 1/5/2013        29       20      0          24       13      0   
##  6 1/6/2013        36       25      0          30       20      0.1 
##  7 1/7/2013        35       30      0.16       35       22      0.23
##  8 1/8/2013        39       32      0.04       36       25      0.32
##  9 1/9/2013        44       31      0.07       39       30      0.1 
## 10 1/10/2013       39       27      0.22       46       32      0.1 
## # … with 1,724 more rows
…
The first step looks like this:

# step 1: pivot this data frame into long format: 
#    we will create a new column called 'climvar_station', and all of the numeric precip and temp values into a column called 'value'. 
clim_vars_longer <- clim_data %>% pivot_longer( 
                           cols = !Date,
                           names_to = "climvar_station",
                           values_to = "value"
                    )

clim_vars_longer

## # A tibble: 10,404 × 3
##    Date     climvar_station value
##    <chr>    <chr>           <dbl>
##  1 1/1/2013 PK.TMaxF           27
##  2 1/1/2013 PK.TMinF           19
##  3 1/1/2013 PK.PrcpIN           0
##  4 1/1/2013 HH.TMaxF           26
##  5 1/1/2013 HH.TMinF           22
##  6 1/1/2013 HH.PrcpIN           0
##  7 1/2/2013 PK.TMaxF           27
##  8 1/2/2013 PK.TMinF           22
##  9 1/2/2013 PK.PrcpIN           0
## 10 1/2/2013 HH.TMaxF           27
## # … with 10,394 more rows
## # ℹ Use `print(n = ...)` to see more rows

In the second step, we separate the station and climate variable
labels into two different columns:

# step 2: separate the climvar_station column into two separate columns that identify the climate variable and the station
clim_vars_separate <- clim_vars_longer %>% separate(
                           col = climvar_station, 
                           into = c("Station","climvar")
                      )

clim_vars_separate

## # A tibble: 10,404 × 4
##    Date     Station climvar value
##    <chr>    <chr>   <chr>   <dbl>
##  1 1/1/2013 PK      TMaxF      27
##  2 1/1/2013 PK      TMinF      19
##  3 1/1/2013 PK      PrcpIN      0
##  4 1/1/2013 HH      TMaxF      26
##  5 1/1/2013 HH      TMinF      22
##  6 1/1/2013 HH      PrcpIN      0
##  7 1/2/2013 PK      TMaxF      27
##  8 1/2/2013 PK      TMinF      22
##  9 1/2/2013 PK      PrcpIN      0
## 10 1/2/2013 HH      TMaxF      27
## # … with 10,394 more rows
## # ℹ Use `print(n = ...)` to see more rows

Finally, let’s put climate measurements from a single station on the
same row:

# step 3: pivot_wider distributes the clim_var column into separate columns, with the data values from the 'value' column

tidy_clim_data <- clim_vars_separate %>% pivot_wider( 
                        names_from = climvar, 
                        values_from = value
                  )

tidy_clim_data

## # A tibble: 3,468 × 5
##    Date     Station TMaxF TMinF PrcpIN
##    <chr>    <chr>   <dbl> <dbl>  <dbl>
##  1 1/1/2013 PK         27    19      0
##  2 1/1/2013 HH         26    22      0
##  3 1/2/2013 PK         27    22      0
##  4 1/2/2013 HH         27    23      0
##  5 1/3/2013 PK         23    14      0
##  6 1/3/2013 HH         25    21      0
##  7 1/4/2013 PK         25    19      0
##  8 1/4/2013 HH         22    13      0
##  9 1/5/2013 PK         29    20      0
## 10 1/5/2013 HH         24    13      0
## # … with 3,458 more rows
## # ℹ Use `print(n = ...)` to see more rows
…
# repeat above as single pipe series without creation of intermediate datasets
  
tidy_clim_data <- clim_data %>% 
  pivot_longer(cols = !Date,
               names_to = "climvar_station",
               values_to = "value") %>% 
  separate(col = climvar_station, 
           into = c("Station","climvar")) %>% 
  pivot_wider(names_from = climvar, 
              values_from = value)
  
tidy_clim_data

## # A tibble: 3,468 × 5
##    Date     Station TMaxF TMinF PrcpIN
##    <chr>    <chr>   <dbl> <dbl>  <dbl>
##  1 1/1/2013 PK         27    19      0
##  2 1/1/2013 HH         26    22      0
##  3 1/2/2013 PK         27    22      0
##  4 1/2/2013 HH         27    23      0
##  5 1/3/2013 PK         23    14      0
##  6 1/3/2013 HH         25    21      0
##  7 1/4/2013 PK         25    19      0
##  8 1/4/2013 HH         22    13      0
##  9 1/5/2013 PK         29    20      0
## 10 1/5/2013 HH         24    13      0
## # … with 3,458 more rows
## # ℹ Use `print(n = ...)` to see more rows
…
# change format of date column
tidy_clim_data <- tidy_clim_data %>% 
  mutate(Date = mdy(Date))
tidy_clim_data

## # A tibble: 3,468 × 5
##    Date       Station TMaxF TMinF PrcpIN
##    <date>     <chr>   <dbl> <dbl>  <dbl>
##  1 2013-01-01 PK         27    19      0
##  2 2013-01-01 HH         26    22      0
##  3 2013-01-02 PK         27    22      0
##  4 2013-01-02 HH         27    23      0
##  5 2013-01-03 PK         23    14      0
##  6 2013-01-03 HH         25    21      0
##  7 2013-01-04 PK         25    19      0
##  8 2013-01-04 HH         22    13      0
##  9 2013-01-05 PK         29    20      0
## 10 2013-01-05 HH         24    13      0
## # … with 3,458 more rows
Now we can use mutate to create individual columns for the date
components

# parse date into year, month, day, and day of year columns
tidy_clim_data <- tidy_clim_data %>% 
  mutate(
    Year = year(Date),
    Month = month(Date),
    Day = mday(Date),
    Yday = yday(Date)
  )

tidy_clim_data

## # A tibble: 3,468 × 9
##    Date       Station TMaxF TMinF PrcpIN  Year Month   Day  Yday
##    <date>     <chr>   <dbl> <dbl>  <dbl> <dbl> <dbl> <int> <dbl>
##  1 2013-01-01 PK         27    19      0  2013     1     1     1
##  2 2013-01-01 HH         26    22      0  2013     1     1     1
##  3 2013-01-02 PK         27    22      0  2013     1     2     2
##  4 2013-01-02 HH         27    23      0  2013     1     2     2
##  5 2013-01-03 PK         23    14      0  2013     1     3     3
##  6 2013-01-03 HH         25    21      0  2013     1     3     3
##  7 2013-01-04 PK         25    19      0  2013     1     4     4
##  8 2013-01-04 HH         22    13      0  2013     1     4     4
##  9 2013-01-05 PK         29    20      0  2013     1     5     5
## 10 2013-01-05 HH         24    13      0  2013     1     5     5
## # … with 3,458 more rows
## # ℹ Use `print(n = ...)` to see more rows
…
Challenge Exercises

Try to put tidyr’s built-in relig_income dataset into a
tidier format. This dataset stores counts based on a survey which (among
other things) asked people about their religion and annual income:

Your final result should look like this:

## # A tibble: 180 × 3
##    religion Income             count
##    <chr>    <chr>              <dbl>
##  1 Agnostic <$10k                 27
##  2 Agnostic $10-20k               34
##  3 Agnostic $20-30k               60
##  4 Agnostic $30-40k               81
##  5 Agnostic $40-50k               76
##  6 Agnostic $50-75k              137
##  7 Agnostic $75-100k             122
##  8 Agnostic $100-150k            109
##  9 Agnostic >150k                 84
## 10 Agnostic Don't know/refused    96
## # … with 170 more rows
…
