Module 2.2
…
The next few examples use meteorological data from Hungry Horse (HH) and Polson Kerr (PK) dams. You can download this data set by clicking here.

Import as a tibble

####
####  Import data as a Tibble dataframe and take a quick glance
####

# import meteorological data from Hungry Horse (HH) and Polson Kerr (PK) dams as tibble dataframe using readr 
clim_data <- read_csv("MTMetStations.csv")

# display tibble - note nice formatting and variable info, entire dataset is not displayed as is case in read.csv
clim_data

## # A tibble: 1,734 x 7
##    Date      PK.TMaxF PK.TMinF PK.PrcpIN HH.TMaxF HH.TMinF HH.PrcpIN
##    <chr>        <int>    <int>     <dbl>    <int>    <int>     <dbl>
##  1 1/1/2013        27       19      0          26       22      0   
##  2 1/2/2013        27       22      0          27       23      0   
##  3 1/3/2013        23       14      0          25       21      0   
##  4 1/4/2013        25       19      0          22       13      0   
##  5 1/5/2013        29       20      0          24       13      0   
##  6 1/6/2013        36       25      0          30       20      0.1 
##  7 1/7/2013        35       30      0.16       35       22      0.23
##  8 1/8/2013        39       32      0.04       36       25      0.32
##  9 1/9/2013        44       31      0.07       39       30      0.1 
## 10 1/10/2013       39       27      0.22       46       32      0.1 
## # ... with 1,724 more rows
…
# gather column names into a new column called 'climvar_station', and all of the numeric precip and temp values into a column called 'value'. By including -Date, we indicate that we don't want to gather this column.
gather_clim_vars <- gather(clim_data, 
                           key = climvar_station, 
                           value = value, 
                           -Date)

gather_clim_vars

## # A tibble: 10,404 x 3
##    Date      climvar_station value
##    <chr>     <chr>           <dbl>
##  1 1/1/2013  PK.TMaxF           27
##  2 1/2/2013  PK.TMaxF           27
##  3 1/3/2013  PK.TMaxF           23
##  4 1/4/2013  PK.TMaxF           25
##  5 1/5/2013  PK.TMaxF           29
##  6 1/6/2013  PK.TMaxF           36
##  7 1/7/2013  PK.TMaxF           35
##  8 1/8/2013  PK.TMaxF           39
##  9 1/9/2013  PK.TMaxF           44
## 10 1/10/2013 PK.TMaxF           39
## # ... with 10,394 more rows

# separate the climvar_station column into two separate columns that identify the climate variable and the station
separate_clim_vars <- gather_clim_vars %>%
  separate(climvar_station, 
           into = c("Station","climvar"))

separate_clim_vars

## # A tibble: 10,404 x 4
##    Date      Station climvar value
##    <chr>     <chr>   <chr>   <dbl>
##  1 1/1/2013  PK      TMaxF      27
##  2 1/2/2013  PK      TMaxF      27
##  3 1/3/2013  PK      TMaxF      23
##  4 1/4/2013  PK      TMaxF      25
##  5 1/5/2013  PK      TMaxF      29
##  6 1/6/2013  PK      TMaxF      36
##  7 1/7/2013  PK      TMaxF      35
##  8 1/8/2013  PK      TMaxF      39
##  9 1/9/2013  PK      TMaxF      44
## 10 1/10/2013 PK      TMaxF      39
## # ... with 10,394 more rows

# spread distributes the clim_var column into separate columns, with the data values from the 'value' column
tidy_clim_data <- spread(separate_clim_vars, 
                        key = climvar, 
                        value = value)

tidy_clim_data

## # A tibble: 3,468 x 5
##    Date     Station PrcpIN TMaxF TMinF
##    <chr>    <chr>    <dbl> <dbl> <dbl>
##  1 1/1/2013 HH        0       26    22
##  2 1/1/2013 PK        0       27    19
##  3 1/1/2014 HH        0       38    27
##  4 1/1/2014 PK        0       35    24
##  5 1/1/2015 HH        0        7     0
##  6 1/1/2015 PK        0        7    -1
##  7 1/1/2016 HH        0       22    15
##  8 1/1/2016 PK        0       22    17
##  9 1/1/2017 HH        0.16    30    16
## 10 1/1/2017 PK        0.34    22     7
## # ... with 3,458 more rows

# repeat above as single pipe series without creation of intermediate datasets
  
tidy_clim_data <- clim_data %>% 
  gather(key = climvar_station,
         value = value,
         -Date) %>% 
  separate(climvar_station, 
           into = c("Station","climvar")) %>% 
  spread(key = climvar,
         value = value)
  
tidy_clim_data

## # A tibble: 3,468 x 5
##    Date     Station PrcpIN TMaxF TMinF
##    <chr>    <chr>    <dbl> <dbl> <dbl>
##  1 1/1/2013 HH        0       26    22
##  2 1/1/2013 PK        0       27    19
##  3 1/1/2014 HH        0       38    27
##  4 1/1/2014 PK        0       35    24
##  5 1/1/2015 HH        0        7     0
##  6 1/1/2015 PK        0        7    -1
##  7 1/1/2016 HH        0       22    15
##  8 1/1/2016 PK        0       22    17
##  9 1/1/2017 HH        0.16    30    16
## 10 1/1/2017 PK        0.34    22     7
## # ... with 3,458 more rows
…
# change format of date column
tidy_clim_data <- tidy_clim_data %>% 
  mutate(Date = mdy(Date))
tidy_clim_data

## # A tibble: 3,468 x 5
##    Date       Station PrcpIN TMaxF TMinF
##    <date>     <chr>    <dbl> <dbl> <dbl>
##  1 2013-01-01 HH        0       26    22
##  2 2013-01-01 PK        0       27    19
##  3 2014-01-01 HH        0       38    27
##  4 2014-01-01 PK        0       35    24
##  5 2015-01-01 HH        0        7     0
##  6 2015-01-01 PK        0        7    -1
##  7 2016-01-01 HH        0       22    15
##  8 2016-01-01 PK        0       22    17
##  9 2017-01-01 HH        0.16    30    16
## 10 2017-01-01 PK        0.34    22     7
## # ... with 3,458 more rows

now we can use mutate to create individual columns for the date components

# parse date into year, month, day, and day of year columns
tidy_clim_data <- tidy_clim_data %>% mutate(
  Year = year(Date),
  Month = month(Date),
  Day = mday(Date),
  Yday = yday(Date))

tidy_clim_data

## # A tibble: 3,468 x 9
##    Date       Station PrcpIN TMaxF TMinF  Year Month   Day  Yday
##    <date>     <chr>    <dbl> <dbl> <dbl> <dbl> <dbl> <int> <dbl>
##  1 2013-01-01 HH        0       26    22  2013     1     1     1
##  2 2013-01-01 PK        0       27    19  2013     1     1     1
##  3 2014-01-01 HH        0       38    27  2014     1     1     1
##  4 2014-01-01 PK        0       35    24  2014     1     1     1
##  5 2015-01-01 HH        0        7     0  2015     1     1     1
##  6 2015-01-01 PK        0        7    -1  2015     1     1     1
##  7 2016-01-01 HH        0       22    15  2016     1     1     1
##  8 2016-01-01 PK        0       22    17  2016     1     1     1
##  9 2017-01-01 HH        0.16    30    16  2017     1     1     1
## 10 2017-01-01 PK        0.34    22     7  2017     1     1     1
## # ... with 3,458 more rows
…
