Module 1.2
…
Let’s read in one of these datasets!

data(mtcars)   # read built-in data on car road tests performed by Motor Trend

head(mtcars)    # inspect the first few lines

# ?mtcars        # learn more about this built-in data set

Many packages come with built-in datasets as well. For, instance,
ggplot2 comes with the “diamonds” package:

ggplot2::diamonds   # note the use of the package name followed by two colons- this is a way to make sure you are using a function (or data set or other object) from a particular package... (sometimes several packages have functions with the same name...)

## # A tibble: 53,940 × 10
##    carat cut       color clarity depth table price     x     y     z
##    <dbl> <ord>     <ord> <ord>   <dbl> <dbl> <int> <dbl> <dbl> <dbl>
##  1  0.23 Ideal     E     SI2      61.5    55   326  3.95  3.98  2.43
##  2  0.21 Premium   E     SI1      59.8    61   326  3.89  3.84  2.31
##  3  0.23 Good      E     VS1      56.9    65   327  4.05  4.07  2.31
##  4  0.29 Premium   I     VS2      62.4    58   334  4.2   4.23  2.63
##  5  0.31 Good      J     SI2      63.3    58   335  4.34  4.35  2.75
##  6  0.24 Very Good J     VVS2     62.8    57   336  3.94  3.96  2.48
##  7  0.24 Very Good I     VVS1     62.3    57   336  3.95  3.98  2.47
##  8  0.26 Very Good H     SI1      61.9    55   337  4.07  4.11  2.53
##  9  0.22 Fair      E     VS2      65.1    61   337  3.87  3.78  2.49
## 10  0.23 Very Good H     VS1      59.4    61   338  4     4.05  2.39
## # ℹ 53,930 more rows
…
Let’s use this data set to review the summarizing and subsetting
operations we have learned- and learn a few new things along the
way:

Subsetting data

# Subsetting data ----------------------

#  Practice subsetting a data frame 
turtles.df <- read_delim(file="turtle_data.txt",delim="\t")   # tab-delimited file
turtles.df

## # A tibble: 21 × 5
##    tag_number sex    carapace_length head_width weight
##         <dbl> <chr>            <dbl>      <dbl>  <dbl>
##  1         10 male              41         7.15   7.6 
##  2         11 female            46.4       8.18  11   
##  3          2 <NA>              24.3       4.42   1.65
##  4         15 <NA>              28.7       4.89   2.18
##  5         16 <NA>              32         5.37   3   
##  6          3 female            42.8       7.32   8.6 
##  7          4 male              40         6.6    6.5 
##  8          5 female            45         8.05  10.9 
##  9         12 female            44         7.55   8.9 
## 10         13 <NA>              28         4.85   1.97
## # ℹ 11 more rows
…
In the ‘tidyverse’ we can use the “arrange” verb to do this!

#  Sorting  

# The 'order' function returns the indices of the original (unsorted) vector in the order that would sort the vector from lowest to highest...   
order(turtles.df$carapace_length)

##  [1]  3 10  4 20  5 12 13 14  7 11  1 15  6 18  9 17 21  8  2 19 16

# To sort a data frame by one vector, you can use "order()"
turtles.df[order(turtles.df$tag_number),]

## # A tibble: 21 × 5
##    tag_number sex    carapace_length head_width weight
##         <dbl> <fct>            <dbl>      <dbl>  <dbl>
##  1          1 <NA>              29.2       5.1    2.38
##  2          2 <NA>              24.3       4.42   1.65
##  3          3 female            42.8       7.32   8.6 
##  4          4 male              40         6.6    6.5 
##  5          5 female            45         8.05  10.9 
##  6          6 female            40         6.53   6.2 
##  7          7 female            48         8.67  13.5 
##  8          8 <NA>              32         5.35   2.9 
##  9          9 male              35         5.74   3.9 
## 10         10 male              41         7.15   7.6 
## # ℹ 11 more rows

# And in decreasing order:

turtles.df[order(turtles.df$tag_number,decreasing=T),]

## # A tibble: 21 × 5
##    tag_number sex    carapace_length head_width weight
##         <dbl> <fct>            <dbl>      <dbl>  <dbl>
##  1        105 male              44         7.1    9   
##  2        104 male              44         7.35   9   
##  3         22 female            48.1       8.55  12.8 
##  4         19 male              42.3       6.77   7.8 
##  5         17 female            35.1       6.04   4.5 
##  6         16 <NA>              32         5.37   3   
##  7         15 <NA>              28.7       4.89   2.18
##  8         14 male              43         6.6    7.2 
##  9         13 <NA>              28         4.85   1.97
## 10         12 female            44         7.55   8.9 
## # ℹ 11 more rows

# or we can use the "arrange" verb in the 'tidyverse':
turtles.df %>% 
  arrange(carapace_length)

## # A tibble: 21 × 5
##    tag_number sex    carapace_length head_width weight
##         <dbl> <fct>            <dbl>      <dbl>  <dbl>
##  1          2 <NA>              24.3       4.42   1.65
##  2         13 <NA>              28         4.85   1.97
##  3         15 <NA>              28.7       4.89   2.18
##  4          1 <NA>              29.2       5.1    2.38
##  5         16 <NA>              32         5.37   3   
##  6          8 <NA>              32         5.35   2.9 
##  7          9 male              35         5.74   3.9 
##  8         17 female            35.1       6.04   4.5 
##  9          4 male              40         6.6    6.5 
## 10          6 female            40         6.53   6.2 
## # ℹ 11 more rows

# or if we want in descending order...

turtles.df %>% 
  arrange(desc(carapace_length))

## # A tibble: 21 × 5
##    tag_number sex    carapace_length head_width weight
##         <dbl> <fct>            <dbl>      <dbl>  <dbl>
##  1         22 female            48.1       8.55   12.8
##  2          7 female            48         8.67   13.5
##  3         11 female            46.4       8.18   11  
##  4          5 female            45         8.05   10.9
##  5         12 female            44         7.55    8.9
##  6        105 male              44         7.1     9  
##  7        104 male              44         7.35    9  
##  8         14 male              43         6.6     7.2
##  9          3 female            42.8       7.32    8.6
## 10         19 male              42.3       6.77    7.8
## # ℹ 11 more rows

# Sorting by 2 columns
turtles.df %>% 
  arrange(sex,weight)

## # A tibble: 21 × 5
##    tag_number sex    carapace_length head_width weight
##         <dbl> <fct>            <dbl>      <dbl>  <dbl>
##  1         17 female            35.1       6.04    4.5
##  2          6 female            40         6.53    6.2
##  3          3 female            42.8       7.32    8.6
##  4         12 female            44         7.55    8.9
##  5          5 female            45         8.05   10.9
##  6         11 female            46.4       8.18   11  
##  7         22 female            48.1       8.55   12.8
##  8          7 female            48         8.67   13.5
##  9          9 male              35         5.74    3.9
## 10          4 male              40         6.6     6.5
## # ℹ 11 more rows
…
# or... use some more tidyverse helper functions and tricks!

turtles.df = turtles.df %>% 
  mutate(across(c("sex","carapace_length","head_width","weight"),
                ~replace(.,tag_number%in%bad.tags,NA)))

# or use the following non-tidyverse syntax... which still seems easier to me!

turtles.df[turtles.df$tag_number%in%bad.tags,c("sex","carapace_length","head_width","weight")]  <- NA

turtles.df

## # A tibble: 21 × 5
##    tag_number sex    carapace_length head_width weight
##         <dbl> <fct>            <dbl>      <dbl>  <dbl>
##  1         10 male              41         7.15   7.6 
##  2         11 female            46.4       8.18  11   
##  3          2 <NA>              24.3       4.42   1.65
##  4         15 <NA>              28.7       4.89   2.18
##  5         16 <NA>              32         5.37   3   
##  6          3 female            42.8       7.32   8.6 
##  7          4 male              40         6.6    6.5 
##  8          5 female            45         8.05  10.9 
##  9         12 female            44         7.55   8.9 
## 10         13 <NA>              NA        NA     NA   
## # ℹ 11 more rows
…
