Submodule 1.3
…
For a nice intro to ‘pivot_wider’ and ‘pivot_longer’, see this link

Back to the example…

Let’s reshape the soil dataset into the long format- which in this
case treats each separate nutrient measurement as a different
observation (row).

# Use 'tidyverse' to reshape the data 

soil.nut <- pivot_longer(soil, cols=c("Ca","Mg","Na"), names_to="nutrient",values_to = "value" )
soil.nut

## # A tibble: 144 × 13
##    Group Contour Depth Gp    Block    pH     N  Dens     P     K Conduc nutrient
##    <fct> <fct>   <fct> <fct> <fct> <dbl> <dbl> <dbl> <int> <dbl>  <dbl> <chr>   
##  1 1     Top     0-10  T0    1      5.4  0.188  0.92   215  0.72   1.09 Ca      
##  2 1     Top     0-10  T0    1      5.4  0.188  0.92   215  0.72   1.09 Mg      
##  3 1     Top     0-10  T0    1      5.4  0.188  0.92   215  0.72   1.09 Na      
##  4 1     Top     0-10  T0    2      5.65 0.165  1.04   208  0.71   1.35 Ca      
##  5 1     Top     0-10  T0    2      5.65 0.165  1.04   208  0.71   1.35 Mg      
##  6 1     Top     0-10  T0    2      5.65 0.165  1.04   208  0.71   1.35 Na      
##  7 1     Top     0-10  T0    3      5.14 0.26   0.95   300  0.68   1.41 Ca      
##  8 1     Top     0-10  T0    3      5.14 0.26   0.95   300  0.68   1.41 Mg      
##  9 1     Top     0-10  T0    3      5.14 0.26   0.95   300  0.68   1.41 Na      
## 10 1     Top     0-10  T0    4      5.14 0.169  1.1    248  1.09   1.64 Ca      
## # … with 134 more rows, and 1 more variable: value <dbl>
…
