Submodule 1.1
…
And finally, we can make up a fake data frame (or tibble) using some
of the tricks we just learned!

# Make up an entire fake data frame!

my.data <- tibble(
  Obs.Id = 1:100,
  Treatment = rep(c("A","B","C","D","E"),each=20),
  Block = rep(1:20,times=5),
  Germination = rpois(100,lambda=rep(c(1,5,4,7,1),each=20)),   # random poisson variable
  AvgHeight = rnorm(100,mean=rep(c(10,30,31,25,35,7),each=20))
)
my.data

## # A tibble: 100 × 5
##    Obs.Id Treatment Block Germination AvgHeight
##     <int> <chr>     <int>       <int>     <dbl>
##  1      1 A             1           2     10.1 
##  2      2 A             2           1     10.4 
##  3      3 A             3           0     10.5 
##  4      4 A             4           0     11.6 
##  5      5 A             5           1     10.7 
##  6      6 A             6           1      8.95
##  7      7 A             7           1     10.6 
##  8      8 A             8           2      9.32
##  9      9 A             9           3      7.47
## 10     10 A            10           1      9.00
## # ℹ 90 more rows
…
